%!PS-Adobe-3.0 EPSF-3.0
%%Title: dyst.fig
%%Creator: fig2dev Version 3.2 Patchlevel 5e
%%CreationDate: Sat Jan 10 22:24:55 2015
%%BoundingBox: 0 0 283 257
%Magnification: 1.0000
%%EndComments
%%BeginProlog
/$F2psDict 200 dict def
$F2psDict begin
$F2psDict /mtrx matrix put
/col-1 {0 setgray} bind def
/col0 {0.000 0.000 0.000 srgb} bind def
/col1 {0.000 0.000 1.000 srgb} bind def
/col2 {0.000 1.000 0.000 srgb} bind def
/col3 {0.000 1.000 1.000 srgb} bind def
/col4 {1.000 0.000 0.000 srgb} bind def
/col5 {1.000 0.000 1.000 srgb} bind def
/col6 {1.000 1.000 0.000 srgb} bind def
/col7 {1.000 1.000 1.000 srgb} bind def
/col8 {0.000 0.000 0.560 srgb} bind def
/col9 {0.000 0.000 0.690 srgb} bind def
/col10 {0.000 0.000 0.820 srgb} bind def
/col11 {0.530 0.810 1.000 srgb} bind def
/col12 {0.000 0.560 0.000 srgb} bind def
/col13 {0.000 0.690 0.000 srgb} bind def
/col14 {0.000 0.820 0.000 srgb} bind def
/col15 {0.000 0.560 0.560 srgb} bind def
/col16 {0.000 0.690 0.690 srgb} bind def
/col17 {0.000 0.820 0.820 srgb} bind def
/col18 {0.560 0.000 0.000 srgb} bind def
/col19 {0.690 0.000 0.000 srgb} bind def
/col20 {0.820 0.000 0.000 srgb} bind def
/col21 {0.560 0.000 0.560 srgb} bind def
/col22 {0.690 0.000 0.690 srgb} bind def
/col23 {0.820 0.000 0.820 srgb} bind def
/col24 {0.500 0.190 0.000 srgb} bind def
/col25 {0.630 0.250 0.000 srgb} bind def
/col26 {0.750 0.380 0.000 srgb} bind def
/col27 {1.000 0.500 0.500 srgb} bind def
/col28 {1.000 0.630 0.630 srgb} bind def
/col29 {1.000 0.750 0.750 srgb} bind def
/col30 {1.000 0.880 0.880 srgb} bind def
/col31 {1.000 0.840 0.000 srgb} bind def

end

/cp {closepath} bind def
/ef {eofill} bind def
/gr {grestore} bind def
/gs {gsave} bind def
/sa {save} bind def
/rs {restore} bind def
/l {lineto} bind def
/m {moveto} bind def
/rm {rmoveto} bind def
/n {newpath} bind def
/s {stroke} bind def
/sh {show} bind def
/slc {setlinecap} bind def
/slj {setlinejoin} bind def
/slw {setlinewidth} bind def
/srgb {setrgbcolor} bind def
/rot {rotate} bind def
/sc {scale} bind def
/sd {setdash} bind def
/ff {findfont} bind def
/sf {setfont} bind def
/scf {scalefont} bind def
/sw {stringwidth} bind def
/tr {translate} bind def
/tnt {dup dup currentrgbcolor
  4 -2 roll dup 1 exch sub 3 -1 roll mul add
  4 -2 roll dup 1 exch sub 3 -1 roll mul add
  4 -2 roll dup 1 exch sub 3 -1 roll mul add srgb}
  bind def
/shd {dup dup currentrgbcolor 4 -2 roll mul 4 -2 roll mul
  4 -2 roll mul srgb} bind def
/$F2psBegin {$F2psDict begin /$F2psEnteredState save def} def
/$F2psEnd {$F2psEnteredState restore end} def

/pageheader {
save
newpath 0 257 moveto 0 0 lineto 283 0 lineto 283 257 lineto closepath clip newpath
-109.6 556.3 translate
1 -1 scale
$F2psBegin
10 setmiterlimit
0 slj 0 slc
 0.06299 0.06299 sc
} bind def
/pagefooter {
$F2psEnd
restore
} bind def
%%EndProlog
pageheader
%
% Fig objects follow
%
% 
% here starts figure with depth 50
% Polyline
0 slj
0 slc
7.500 slw
n 5535 6795 m 6210 6795 l 6210 7470 l 5535 7470 l
 cp gs col0 s gr 
% Polyline
n 3510 6795 m 4185 6795 l 4185 7470 l 3510 7470 l
 cp gs col0 s gr 
% Polyline
n 4185 6795 m 4860 6795 l 4860 7470 l 4185 7470 l
 cp gs col0 s gr 
% Polyline
n 4860 6795 m 5535 6795 l 5535 7470 l 4860 7470 l
 cp gs col0 s gr 
% Polyline
n 5535 7470 m 6210 7470 l 6210 8145 l 5535 8145 l
 cp gs col0 s gr 
% Polyline
n 3510 7470 m 4185 7470 l 4185 8145 l 3510 8145 l
 cp gs col0 s gr 
% Polyline
n 4185 7470 m 4860 7470 l 4860 8145 l 4185 8145 l
 cp gs col0 s gr 
% Polyline
n 4860 7470 m 5535 7470 l 5535 8145 l 4860 8145 l
 cp gs col0 s gr 
% Polyline
n 5535 8145 m 6210 8145 l 6210 8820 l 5535 8820 l
 cp gs col0 s gr 
% Polyline
n 3510 8145 m 4185 8145 l 4185 8820 l 3510 8820 l
 cp gs col0 s gr 
% Polyline
n 4185 8145 m 4860 8145 l 4860 8820 l 4185 8820 l
 cp gs col0 s gr 
% Polyline
n 4860 8145 m 5535 8145 l 5535 8820 l 4860 8820 l
 cp gs col0 s gr 
% Polyline
n 5535 6120 m 6210 6120 l 6210 6795 l 5535 6795 l
 cp gs col0 s gr 
% Polyline
n 3510 6120 m 4185 6120 l 4185 6795 l 3510 6795 l
 cp gs col0 s gr 
% Polyline
n 4185 6120 m 4860 6120 l 4860 6795 l 4185 6795 l
 cp gs col0 s gr 
% Polyline
n 4860 6120 m 5535 6120 l 5535 6795 l 4860 6795 l
 cp gs col0 s gr 
% Polyline
n 4185 6795 m 4860 6795 l 4860 7470 l 4185 7470 l
 cp gs col0 s gr 
% Polyline
n 4410 6795 m
 4410 7470 l gs col0 s gr 
% Polyline
gs  clippath
4619 7312 m 4740 7312 l 4740 7267 l 4619 7267 l 4619 7267 l 4709 7290 l 4619 7312 l cp
eoclip
n 4410 7290 m
 4725 7290 l gs col0 s gr gr

% arrowhead
n 4619 7312 m 4709 7290 l 4619 7267 l 4619 7312 l  cp gs 0.00 setgray ef gr  col0 s
% Polyline
gs  clippath
4619 8662 m 4740 8662 l 4740 8617 l 4619 8617 l 4619 8617 l 4709 8640 l 4619 8662 l cp
eoclip
n 4410 8640 m
 4725 8640 l gs col0 s gr gr

% arrowhead
n 4619 8662 m 4709 8640 l 4619 8617 l 4619 8662 l  cp gs 0.00 setgray ef gr  col0 s
% Polyline
n 4185 8145 m 4860 8145 l 4860 8820 l 4185 8820 l
 cp gs col0 s gr 
% Polyline
n 4410 8640 m
 4410 8145 l gs col0 s gr 
% Polyline
n 4185 6120 m 4860 6120 l 4860 6795 l 4185 6795 l
 cp gs col0 s gr 
% Polyline
n 4410 6120 m
 4410 6795 l gs col0 s gr 
% Polyline
gs  clippath
4619 6637 m 4740 6637 l 4740 6592 l 4619 6592 l 4619 6592 l 4709 6615 l 4619 6637 l cp
eoclip
n 4410 6615 m
 4725 6615 l gs col0 s gr gr

% arrowhead
n 4619 6637 m 4709 6615 l 4619 6592 l 4619 6637 l  cp gs 0.00 setgray ef gr  col0 s
% Polyline
n 4185 7470 m 4860 7470 l 4860 8145 l 4185 8145 l
 cp gs col0 s gr 
% Polyline
n 4410 7470 m
 4410 8145 l gs col0 s gr 
% Polyline
gs  clippath
4619 7987 m 4740 7987 l 4740 7942 l 4619 7942 l 4619 7942 l 4709 7965 l 4619 7987 l cp
eoclip
n 4410 7965 m
 4725 7965 l gs col0 s gr gr

% arrowhead
n 4619 7987 m 4709 7965 l 4619 7942 l 4619 7987 l  cp gs 0.00 setgray ef gr  col0 s
% Polyline
n 4410 6120 m
 4410 4770 l gs col0 s gr 
% Polyline
n 4185 8145 m 4185 7470 l 4860 7470 l 4860 8145 l
 cp gs col0 s gr 
% Polyline
n 4185 7920 m
 4860 7920 l gs col0 s gr 
% Polyline
gs  clippath
4702 7711 m 4702 7590 l 4657 7590 l 4657 7711 l 4657 7711 l 4680 7621 l 4702 7711 l cp
eoclip
n 4680 7920 m
 4680 7605 l gs col0 s gr gr

% arrowhead
n 4702 7711 m 4680 7621 l 4657 7711 l 4702 7711 l  cp gs 0.00 setgray ef gr  col0 s
% Polyline
gs  clippath
6052 7711 m 6052 7590 l 6007 7590 l 6007 7711 l 6007 7711 l 6030 7621 l 6052 7711 l cp
eoclip
n 6030 7920 m
 6030 7605 l gs col0 s gr gr

% arrowhead
n 6052 7711 m 6030 7621 l 6007 7711 l 6052 7711 l  cp gs 0.00 setgray ef gr  col0 s
% Polyline
n 5535 8145 m 5535 7470 l 6210 7470 l 6210 8145 l
 cp gs col0 s gr 
% Polyline
n 6030 7920 m
 5535 7920 l gs col0 s gr 
% Polyline
n 3510 8145 m 3510 7470 l 4185 7470 l 4185 8145 l
 cp gs col0 s gr 
% Polyline
n 3510 7920 m
 4185 7920 l gs col0 s gr 
% Polyline
gs  clippath
4027 7711 m 4027 7590 l 3982 7590 l 3982 7711 l 3982 7711 l 4005 7621 l 4027 7711 l cp
eoclip
n 4005 7920 m
 4005 7605 l gs col0 s gr gr

% arrowhead
n 4027 7711 m 4005 7621 l 3982 7711 l 4027 7711 l  cp gs 0.00 setgray ef gr  col0 s
% Polyline
n 4860 8145 m 4860 7470 l 5535 7470 l 5535 8145 l
 cp gs col0 s gr 
% Polyline
n 4860 7920 m
 5535 7920 l gs col0 s gr 
% Polyline
gs  clippath
5377 7711 m 5377 7590 l 5332 7590 l 5332 7711 l 5332 7711 l 5355 7621 l 5377 7711 l cp
eoclip
n 5355 7920 m
 5355 7605 l gs col0 s gr gr

% arrowhead
n 5377 7711 m 5355 7621 l 5332 7711 l 5377 7711 l  cp gs 0.00 setgray ef gr  col0 s
% Polyline
n 3510 7920 m
 2160 7920 l gs col0 s gr 
/Times-Roman ff 190.50 scf sf
3285 6345 m
gs 1 -1 sc (0) col0 sh gr
/Times-Roman ff 190.50 scf sf
3285 7020 m
gs 1 -1 sc (1) col0 sh gr
/Times-Roman ff 190.50 scf sf
3285 7695 m
gs 1 -1 sc (2) col0 sh gr
/Times-Roman ff 190.50 scf sf
3285 8370 m
gs 1 -1 sc (3) col0 sh gr
/Times-Roman ff 190.50 scf sf
4275 6030 m
gs 1 -1 sc (1) col0 sh gr
/Times-Roman ff 190.50 scf sf
3600 6030 m
gs 1 -1 sc (0) col0 sh gr
/Times-Roman ff 190.50 scf sf
4950 6030 m
gs 1 -1 sc (2) col0 sh gr
/Times-Roman ff 190.50 scf sf
5625 6030 m
gs 1 -1 sc (3) col0 sh gr
/Times-Roman ff 190.50 scf sf
2610 7020 m
gs 1 -1 sc (h\(b\)=) col0 sh gr
/Times-Roman ff 190.50 scf sf
5040 5760 m
gs 1 -1 sc (h\(c\)=) col0 sh gr
/Times-Roman ff 190.50 scf sf
4545 4950 m
gs 1 -1 sc (\(c, d\) [h\(c\) = 1]) col0 sh gr
/Times-Roman ff 190.50 scf sf
1755 7830 m
gs 1 -1 sc (\(a, b\) [h\(b\) = 2]) col0 sh gr
% here ends figure;
pagefooter
showpage
%%Trailer
%EOF
